Proyecto Final
…
analysis_date <- lubridate::as_date("2006-12-31", tz = "UTC")
#rfm_result <- rfm_table_order(datos, 
#                              customer_id=CustomerID, 
#                              order_date=UltimaCompra, 
#                              revenue=Total,
#                              max(datos$UltimaCompra))
rfm_result <- rfm_table_order(historic_invoices, 
                              customer_id=CustomerID, 
                              order_date=InvoiceDay, 
                              revenue=Total,
                              max(historic_invoices$InvoiceDay))
#summary(rfm_result)
rfm_result

## # A tibble: 4,339 x 9
##    customer_id date_most_recent recency_days transaction_cou~ amount
##    <fct>       <date>                  <dbl>            <dbl>  <dbl>
##  1 12346       2011-01-18                325                1 77184.
##  2 12347       2011-12-07                  2                7  4310 
##  3 12348       2011-09-25                 75                4  1797.
##  4 12349       2011-11-21                 18                1  1758.
##  5 12350       2011-02-02                310                1   334.
##  6 12352       2011-11-03                 36                7  2506.
##  7 12353       2011-05-19                204                1    89 
##  8 12354       2011-04-21                232                1  1079.
##  9 12355       2011-05-09                214                1   459.
## 10 12356       2011-11-17                 22                3  2811.
## # ... with 4,329 more rows, and 4 more variables: recency_score <int>,
## #   frequency_score <int>, monetary_score <int>, rfm_score <dbl>
…
