Trabajo en clase # 1
…
analysis_date <- lubridate::as_date("2006-12-31", tz = "UTC")
rfm_result <- rfm_table_order(datos, 
                              customer_id=CustomerID, 
                              order_date=UltimaCompra, 
                              revenue=Total, max(datos$UltimaCompra))
#summary(rfm_result)
rfm_result

## # A tibble: 94 x 9
##    customer_id date_most_recent recency_days transaction_cou~ amount
##    <fct>       <date>                  <dbl>            <dbl>  <dbl>
##  1 12426       2011-05-29                194                1   583.
##  2 12427       2011-11-18                 21                1   826.
##  3 12468       2011-06-05                187                1   730.
##  4 12471       2011-12-07                  2                1 19824.
##  5 12472       2011-11-07                 32                1  6572.
##  6 12473       2011-11-10                 29                1  3939.
##  7 12474       2011-11-22                 17                1  7376.
##  8 12475       2011-10-17                 53                1   723.
##  9 12476       2011-11-24                 15                1  6816.
## 10 12477       2011-11-17                 22                1 13220.
## # ... with 84 more rows, and 4 more variables: recency_score <int>,
## #   frequency_score <int>, monetary_score <int>, rfm_score <dbl>
…
El siguiente paso a ejecutar es comparar la diferencia en ventas de u mes a otro.

compras_diferencia <- compras
compras_diferencia['ventas_previas'] <- shift(compras_diferencia$ventas,n=1,fill=0)
na.omit(compras_diferencia)

## # A tibble: 201 x 3
##    Fecha      ventas ventas_previas
##    <date>      <dbl>          <dbl>
##  1 2010-12-01  261.              0 
##  2 2010-12-02  155.            261.
##  3 2010-12-03  556.            155.
##  4 2010-12-05 2477.            556.
##  5 2010-12-06  196.           2477.
##  6 2010-12-07  597.            196.
##  7 2010-12-08  523.            597.
##  8 2010-12-09  919.            523.
##  9 2010-12-10 2360.            919.
## 10 2010-12-13   12.4          2360.
## # ... with 191 more rows
…
#Calcular el RMSE en Entrenamiento
entrenamiento$Prediccion <- predict(modelo.simple)
sqrt(mean((entrenamiento$diff - entrenamiento$Prediccion)^2))

## [1] 1644.012

# predecir valores de diff en el conjunto de datos de prueba
prueba$Prediccion <- predict(modelo.simple, newdata = prueba)
#Calcular el RMSE en prueba
#sqrt(mean((prueba$diff - prueba$Prediccion)^2))

entrenamiento[,c(1,4,18)]

## # A tibble: 150 x 3
##    Fecha         diff Prediccion
##    <date>       <dbl>      <dbl>
##  1 2010-12-01   261.       86.2 
##  2 2010-12-02  -106.      -49.7 
##  3 2010-12-03   400.      141.  
##  4 2010-12-05  1921.     -122.  
##  5 2010-12-07   400.     1271.  
##  6 2010-12-08   -74.1    -122.  
##  7 2010-12-17  4678.     1306.  
##  8 2010-12-19 -4221.    -2345.  
##  9 2010-12-20   162.     2280.  
## 10 2010-12-23   760.        1.92
## # ... with 140 more rows

prueba[,c(1,4,18)]

## # A tibble: 51 x 3
##    Fecha         diff Prediccion
##    <date>       <dbl>      <dbl>
##  1 2010-12-06 -2280.       -912.
##  2 2010-12-09   396.        125.
##  3 2010-12-10  1441.       -120.
##  4 2010-12-13 -2348.       -663.
##  5 2011-01-12   106.        366.
##  6 2011-01-25    52.1     -1110.
##  7 2011-01-27  -408.        731.
##  8 2011-01-31  1564.        298.
##  9 2011-02-09 -1543.       -764.
## 10 2011-02-14 -1553.       -955.
## # ... with 41 more rows
…
#Calcular el RMSE en Entrenamiento
entrenamiento$Prediccion <- predict(modelo.multiple0)
sqrt(mean((entrenamiento$diff - entrenamiento$Prediccion)^2))

## [1] 1398.063

# predecir valores de mpg.mpg en el conjunto de datos de prueba
prueba$Prediccion <- predict(modelo.multiple0, newdata = prueba[,4:15])
#Calcular el RMSE en prueba
#sqrt(mean((prueba$diff - prueba$Prediccion)^2))

entrenamiento[,c(1,4,18)]

## # A tibble: 150 x 3
##    Fecha         diff Prediccion
##    <date>       <dbl>      <dbl>
##  1 2010-12-01   261.      116.  
##  2 2010-12-02  -106.     -122.  
##  3 2010-12-03   400.        6.08
##  4 2010-12-05  1921.     -345.  
##  5 2010-12-07   400.      310.  
##  6 2010-12-08   -74.1     -47.3 
##  7 2010-12-17  4678.     1042.  
##  8 2010-12-19 -4221.    -3605.  
##  9 2010-12-20   162.      993.  
## 10 2010-12-23   760.      270.  
## # ... with 140 more rows

prueba[,c(1,4,18)]

## # A tibble: 51 x 3
##    Fecha         diff Prediccion
##    <date>       <dbl>      <dbl>
##  1 2010-12-06 -2280.      -2018.
##  2 2010-12-09   396.        148.
##  3 2010-12-10  1441.       -487.
##  4 2010-12-13 -2348.      -1378.
##  5 2011-01-12   106.       1856.
##  6 2011-01-25    52.1     -1588.
##  7 2011-01-27  -408.        538.
##  8 2011-01-31  1564.        575.
##  9 2011-02-09 -1543.       -361.
## 10 2011-02-14 -1553.      -1167.
## # ... with 41 more rows
…
#Calcular el RMSE en Entrenamiento
entrenamiento$Prediccion <- predict(modelo.multiple1)
sqrt(mean((entrenamiento$diff - entrenamiento$Prediccion)^2))

## [1] 1427.641

# predecir valores de mpg.mpg en el conjunto de datos de prueba
prueba$Prediccion <- predict(modelo.multiple1, newdata = prueba[,4:15])
#Calcular el RMSE en prueba
#sqrt(mean((prueba$diff - prueba$Prediccion)^2))

entrenamiento[,c(1,4,18)]

## # A tibble: 150 x 3
##    Fecha         diff Prediccion
##    <date>       <dbl>      <dbl>
##  1 2010-12-01   261.       110. 
##  2 2010-12-02  -106.      -121. 
##  3 2010-12-03   400.        12.8
##  4 2010-12-05  1921.      -322. 
##  5 2010-12-07   400.       430. 
##  6 2010-12-08   -74.1       92.8
##  7 2010-12-17  4678.      1290. 
##  8 2010-12-19 -4221.     -3398. 
##  9 2010-12-20   162.      1089. 
## 10 2010-12-23   760.       630. 
## # ... with 140 more rows

prueba[,c(1,4,18)]

## # A tibble: 51 x 3
##    Fecha         diff Prediccion
##    <date>       <dbl>      <dbl>
##  1 2010-12-06 -2280.     -1929. 
##  2 2010-12-09   396.       318. 
##  3 2010-12-10  1441.      -266. 
##  4 2010-12-13 -2348.     -1172. 
##  5 2011-01-12   106.      2025. 
##  6 2011-01-25    52.1    -1528. 
##  7 2011-01-27  -408.        84.2
##  8 2011-01-31  1564.       678. 
##  9 2011-02-09 -1543.      -184. 
## 10 2011-02-14 -1553.     -1020. 
## # ... with 41 more rows
…
